<svg width="165" height="165" viewBox="0 0 165 165" fill="none" xmlns="http://www.w3.org/2000/svg">
<path d="M47.2613 96.3699C39.7819 91.5014 36.0618 80.1864 37.8944 69.8385C39.727 59.4906 46.6287 50.5777 54.9021 46.734C58.9267 44.9201 63.3388 44.1343 67.7422 44.4473C72.1456 44.7603 76.4022 46.1623 80.1297 48.5273C87.7167 53.1666 98.447 55.7077 102.05 64.9898C104.819 72.1228 101.307 86.6073 97.5805 93.5355C94.3597 99.5237 88.2392 102.263 82.4892 103.453C76.1276 104.75 69.5617 104.666 63.2354 103.207C56.9092 101.747 50.9702 98.9456 45.8202 94.9922L47.2613 96.3699Z" fill="#2F2E41"/>
<path d="M16.4901 165L13.2701 163L12.8701 162.75L33.0801 125.92C33.9493 124.326 35.1259 122.92 36.5421 121.784C37.9582 120.647 39.5856 119.803 41.3301 119.3C43.5325 118.644 45.8654 118.558 48.1101 119.05C49.4199 119.327 50.6807 119.799 51.8501 120.45C52.3314 120.714 52.7957 121.008 53.2401 121.33C54.9492 122.528 56.3534 124.111 57.3401 125.95C58.5145 128.103 59.0947 130.53 59.0209 132.982C58.9471 135.434 58.222 137.821 56.9201 139.9L49.1301 152.35L42.4701 163L41.2201 165H16.4901Z" fill="#2F2E41"/>
<path d="M68.4143 109.442C81.979 109.442 92.9753 98.4452 92.9753 84.8805C92.9753 71.3158 81.979 60.3195 68.4143 60.3195C54.8496 60.3195 43.8533 71.3158 43.8533 84.8805C43.8533 98.4452 54.8496 109.442 68.4143 109.442Z" fill="#FFB8B8"/>
<path d="M93.0703 165H37.8604L38.1104 164.29C37.9702 163.86 37.8402 163.43 37.7202 163C37.5903 162.55 37.48 162.09 37.3804 161.64C36.4832 157.454 36.4865 153.125 37.3901 148.94C40.4404 133.96 52.6104 121.79 52.6104 121.79C52.8204 121.63 53.0303 121.48 53.2402 121.33C55.0507 120.004 57.015 118.903 59.0903 118.05C68.1303 114.3 77.6103 115.81 83.98 117.75C86.1984 118.421 88.3671 119.246 90.4702 120.22C91.21 120.57 91.6104 120.79 91.6104 120.79L92.2402 140L93 163L93.0703 165Z" fill="#6C63FF"/>
<path d="M118.61 163L114.39 141.54L110.13 119.9C109.953 119.006 109.509 118.187 108.858 117.55C108.206 116.913 107.377 116.488 106.48 116.33L97.5601 114.79L89.2603 113.36C88.4597 113.216 87.6349 113.293 86.8752 113.584C86.1155 113.875 85.4498 114.368 84.9502 115.01C84.3264 115.788 83.9844 116.753 83.98 117.75C83.9802 118.366 84.1061 118.975 84.3501 119.54C88.6802 129.64 88.7603 145.63 87.6602 163C87.6104 163.66 87.5703 164.33 87.52 165H119.01L118.61 163Z" fill="#2F2E41"/>
<path d="M59.0903 118.05C58.9067 117.322 58.545 116.652 58.0377 116.098C57.5305 115.545 56.8937 115.127 56.1846 114.881C55.4755 114.635 54.7163 114.569 53.9755 114.689C53.2346 114.81 52.5353 115.112 51.9404 115.57L48.1104 119.05L32.4302 133.33C31.9415 133.769 31.5585 134.312 31.3101 134.92C29.5401 139.15 26.0904 147.5 22.0801 157.81C21.4302 159.49 20.7603 161.22 20.0703 163C19.8301 163.66 19.5703 164.33 19.3101 165H45.1504C45.3604 164.33 45.5703 163.66 45.7803 163C46.9302 159.37 48.0503 155.81 49.1304 152.35C52.29 142.3 55.1402 133.17 57.3404 125.95C57.9503 123.95 58.5069 122.103 59.0103 120.41C59.2453 119.644 59.2728 118.83 59.0903 118.05Z" fill="#2F2E41"/>
<path d="M114.87 122.96C113.597 119.627 111.085 116.916 107.858 115.394C104.632 113.871 100.942 113.655 97.5601 114.79C97.1279 114.933 96.704 115.1 96.2901 115.29C93.9211 116.347 91.9023 118.057 90.4703 120.22C89.8859 121.084 89.4058 122.014 89.0401 122.99C88.3913 124.685 88.0845 126.492 88.1377 128.306C88.191 130.12 88.6031 131.906 89.3502 133.56L92.2403 140L102.58 163L103.48 165H124.41L125.85 164.44L129.59 163L130.11 162.8L114.87 122.96Z" fill="#2F2E41"/>
<path d="M87.7044 56.6718C88.5605 56.9285 89.4773 56.8957 90.3129 56.5786C91.1485 56.2615 91.8562 55.6778 92.3265 54.9179C92.7719 54.1433 93.0339 53.277 93.0926 52.3854C93.1512 51.4938 93.0049 50.6007 92.6648 49.7745C91.9678 48.1252 90.8693 46.6763 89.4694 45.56C87.8797 44.1214 85.9443 43.1193 83.852 42.6516C82.8067 42.4267 81.7252 42.4292 80.681 42.6588C79.6367 42.8883 78.6539 43.3397 77.7993 43.9822C76.9601 44.6461 76.338 45.5453 76.0127 46.5647C75.6875 47.5841 75.6738 48.6774 75.9734 49.7047C76.6093 51.549 78.3319 52.7846 80.0521 53.7049C83.4652 55.527 87.229 56.597 91.0903 56.8429L87.7044 56.6718Z" fill="#2F2E41"/>
<path d="M92.4824 84.1469C88.5337 84.6913 89.0408 82.6815 87.4593 79.0226C85.8778 75.3637 83.7609 71.0202 79.7921 70.6496C76.5397 70.3459 73.8599 72.946 71.225 74.8768C66.5287 78.3182 60.1996 80.0026 54.7557 77.9381C49.3118 75.8735 45.5289 69.3855 47.5944 63.942C48.2374 62.4389 49.1822 61.0839 50.3702 59.9608C51.5582 58.8377 52.9641 57.9704 54.5009 57.4128C57.584 56.3167 60.8585 55.8618 64.1235 56.0761C71.3852 56.3083 78.5074 58.1315 84.9874 61.4169C89.4596 63.6893 93.8133 66.9402 95.5099 71.661C97.2065 76.3818 98.3229 83.0157 93.4718 84.2928L92.4824 84.1469Z" fill="#2F2E41"/>
<path d="M85.6862 43.6874C83.7342 40.2901 85.3454 35.6285 88.5389 33.3585C91.7325 31.0885 96.0164 30.8658 99.8273 31.7762C103.596 32.7256 107.049 34.6492 109.84 37.3542C112.63 40.0591 114.661 43.4502 115.727 47.1875C117.345 53.1288 116.383 59.51 117.753 65.5132C118.483 68.7132 119.86 71.73 121.8 74.3777C123.74 77.0253 126.201 79.2479 129.033 80.9084C131.864 82.569 135.005 83.6323 138.263 84.0331C141.521 84.4338 144.826 84.1634 147.975 83.2386C152.077 82.034 156.246 79.1054 156.649 74.8493C157.074 79.7368 155.959 84.6347 153.462 88.8574C150.964 93.0801 147.209 96.416 142.721 98.3982C137.436 100.603 131.541 100.747 125.816 100.6C122.086 100.504 118.27 100.279 114.829 98.836C112.447 97.7501 110.307 96.1997 108.532 94.2759C106.758 92.352 105.385 90.0933 104.495 87.6322C102.743 82.6853 102.27 77.3757 103.12 72.197C103.683 68.1687 104.803 64.2204 105.117 60.165C105.43 56.1096 104.836 51.7795 102.335 48.5711C99.8353 45.3627 95.0596 43.7239 91.505 45.7011C90.0765 46.4957 88.924 47.7938 87.3718 48.3066C85.8197 48.8193 83.6199 47.9182 83.7611 46.2896L85.6862 43.6874Z" fill="#2F2E41"/>
<path d="M153.51 0H11.4902C8.44399 0.00364402 5.52355 1.21536 3.36951 3.36935C1.21547 5.52335 0.003705 8.44378 0 11.49V153.51C0.003705 156.556 1.21547 159.477 3.36951 161.631C5.52355 163.785 8.44399 164.996 11.4902 165H153.51C156.557 164.998 159.478 163.787 161.633 161.632C163.787 159.478 164.998 156.557 165 153.51V11.49C164.998 8.44332 163.787 5.52195 161.633 3.36758C159.478 1.21322 156.557 0.00199479 153.51 0ZM163 153.51C162.998 156.026 161.997 158.439 160.218 160.218C158.439 161.997 156.026 162.998 153.51 163H11.4902C8.97447 162.996 6.56281 161.995 4.78387 160.216C3.00494 158.437 2.00385 156.026 2 153.51V11.49C2.00385 8.97426 3.00494 6.56264 4.78387 4.78375C6.56281 3.00486 8.97447 2.00379 11.4902 2H153.51C156.026 2.00215 158.439 3.00269 160.218 4.78195C161.997 6.56121 162.998 8.9738 163 11.49V153.51ZM37.7202 163C37.8403 163.43 37.9703 163.86 38.1103 164.29L37.8603 165H87.52C87.5703 164.33 87.6103 163.66 87.6601 163H37.7202Z" fill="#3F3D56"/>
</svg>
